…
## ~8.5k poems out of 500 texts
quasi_df$qp_id %>% unique() %>% length()
```

    ## [1] 8570

``` r
saveRDS(quasi_df,"data/quasi_df.rds")

quasi_df
```

    ## # A tibble: 213,728 × 4
    ## # Groups:   qp_id [8,570]
    ##    qp_id      quasi_id stress_pattern   doc_id            
    ##    <chr>         <int> <chr>            <chr>             
    ##  1 quasip-1-1        1 00010100001      prs-1.accented.txt
    ##  2 quasip-1-1        2 001001001010     prs-1.accented.txt
    ##  3 quasip-1-1        3 010000010100100  prs-1.accented.txt
    ##  4 quasip-1-1        4 100001010001     prs-1.accented.txt
    ##  5 quasip-1-1        5 010001001010     prs-1.accented.txt
    ##  6 quasip-1-1        6 0100001001010010 prs-1.accented.txt
    ##  7 quasip-1-1        7 01001010010      prs-1.accented.txt
    ##  8 quasip-1-1        8 00010001010100   prs-1.accented.txt
    ##  9 quasip-1-1        9 10001000100010   prs-1.accented.txt
    ## 10 quasip-1-1       10 01010010010      prs-1.accented.txt
    ## # … with 213,718 more rows
…
